{
  "page": 1,
  "total_pages": 1000,
  "total_results": 20000,
  "results": [
    {
      "id": 12345,
      "media_type": "movie",
      "title": "Trending Title",
      "overview": "A trending movie this week.",
      "release_date": "2026-01-10",
      "poster_path": "/trend.jpg",
      "vote_average": 7.1,
      "popularity": 999.9
    }
  ]
}
